<?xml version="1.0" standalone="no"?>
<!DOCTYPE svg PUBLIC "-//W3C//DTD SVG 1.1//EN" "http://www.w3.org/Graphics/SVG/1.1/DTD/svg11.dtd">
<svg xmlns="http://www.w3.org/2000/svg">
<metadata></metadata>
<defs>
<font id="lostbulldog" horiz-adv-x="1000" >

<font-face 
 font-family="Lost Bulldog"
 font-weight="400" 
 font-stretch="normal" 
 units-per-em="1000"
 ascent="850"
 descent="-150"
 />

<missing-glyph horiz-adv-x="1000" />

 
<glyph 
 glyph-name="facebook" 
 unicode="&#xe000;"
 d="M570.9-150V306.1H711.3L732.4 483.8H571.1V597.3C571.1 648.8 584.2 683.8 652 683.8H738.3V843C723.2 845.1 671.9 850 612.3 850 487.9 850 402.7 767.2 402.7 615V484H261.9V306.3H402.7V-150H570.9Z"
 horiz-adv-x="1000" 
 />
 
<glyph 
 glyph-name="instagram" 
 unicode="&#xe001;"
 d="M884.6 427H797.5C803.7 402.3 807.6 376.6 807.6 350 807.6 180.1 669.9 42.4 500 42.4S192.4 180.1 192.4 350C192.4 376.6 196.1 402.3 202.5 427H115.4V3.9C115.4-17.4 132.6-34.6 153.9-34.6H846.1C867.4-34.6 884.6-17.4 884.6 3.9V427ZM884.6 696.1C884.6 717.4 867.4 734.6 846.1 734.6H730.7C709.4 734.6 692.2 717.4 692.2 696.1V580.7C692.2 559.4 709.4 542.2 730.7 542.2H846.1C867.4 542.2 884.6 559.4 884.6 580.7V696.1ZM500 542.4C393.8 542.4 307.6 456.3 307.6 350S393.8 157.6 500 157.6 692.4 243.8 692.4 350 606.3 542.4 500 542.4M884.6-150H115.4C51.6-150 0-98.2 0-34.6V734.6C0 798.4 51.6 850 115.4 850H884.8C948.4 850 1000 798.4 1000 734.6V-34.6C1000-98.2 948.4-150 884.6-150"
 horiz-adv-x="1000" 
 />
 
<glyph 
 glyph-name="twitter" 
 unicode="&#xe002;"
 d="M1000 660.2C963.3 643.8 923.6 632.8 882.2 627.9 924.6 653.3 957 693.6 972.5 741.4 932.8 718 888.9 700.8 842.2 691.6 804.7 731.4 751.4 756.3 692.4 756.3 579.1 756.3 487.3 664.5 487.3 551.2 487.3 535.2 489.1 519.5 492.6 504.5 322.1 513.1 170.9 594.7 69.7 718.9 52.1 688.7 42 653.3 42 615.8 42 544.7 78.1 481.8 133.2 445.1 99.6 446.1 68 455.5 40.2 470.7V468.2C40.2 368.8 110.9 285.7 204.9 267 187.7 262.3 169.5 259.8 150.8 259.8 137.5 259.8 124.8 261.1 112.1 263.5 138.3 182 214.1 122.7 303.7 120.9 233.4 65.8 145.1 33 48.8 33 32.2 33 16 34-0.2 35.9 90.8-22.5 198.6-56.3 314.5-56.3 691.8-56.3 898.2 256.4 898.2 527.5 898.2 536.5 898 545.3 897.7 554.1 937.7 582.8 972.5 618.9 1000 660.2Z"
 horiz-adv-x="1000" 
 />
 
<glyph 
 glyph-name="download" 
 unicode="&#xe003;"
 d="M48.4-143.2H951.6C978.1-143.2 1000-121.5 1000-94.7V2C1000 28.5 978.3 50.4 951.6 50.4H48.4C21.7 50.4 0 28.7 0 2V-94.7C0-121.3 20.9-143.2 48.4-143.2ZM48.4-143.2 567.8 843.2H431.4C403.9 843.2 381.4 820.5 381.4 793.2V591.6C381.4 564.3 358.8 541.6 331.4 541.6H244.3C202.3 541.6 179.1 493.2 204.9 460.2L455.7 137.5C475.8 111.7 515.4 111.7 535.5 137.5L793.6 460.2C819.3 493.2 795.9 541.6 753.3 541.6H667.8C640.4 541.6 617.8 564.3 617.8 591.6V793.2C617.8 820.5 595.1 843.2 567.8 843.2ZM567.8 843.2"
 horiz-adv-x="1000" 
 />
 
<glyph 
 glyph-name="print" 
 unicode="&#xe004;"
 d="M226.4 721.7H773.6V656.6H827.9V778.1H172.1V656.6H226.4M877.1 600.2H122.9C55.1 600.2 0 542.8 0 471.9V227.9C0 157.2 55.1 99.8 122.9 99.8H172.1V-78.3H827.9V99.8H877.1C945.1 99.8 1000 157.2 1000 227.9V471.9C1000 542.8 944.9 600.2 877.1 600.2ZM773.6 99.8V-21.7H226.4V292H773.8V99.8ZM842.2 396.7C813.7 396.7 790.6 420.7 790.6 450.4S813.7 504.1 842.2 504.1C870.7 504.1 893.8 480.1 893.8 450.4 893.6 420.7 870.5 396.7 842.2 396.7ZM325.4 208.8H675V163.5H325.4ZM325.4 107H675V61.7H325.4Z"
 horiz-adv-x="1000" 
 />
 
<glyph 
 glyph-name="share" 
 unicode="&#xe005;"
 d="M989.5 500.2L703.7 785.7C696.7 792.8 688.3 796.3 678.5 796.3 668.9 796.3 660.5 792.8 653.3 785.7 646.3 778.7 642.8 770.3 642.8 760.5V617.6H517.8C252.5 617.6 89.8 542.6 29.5 392.8 9.8 343.2 0 281.3 0 207.2 0 145.5 23.6 61.5 70.9-44.5 72.1-47.1 74-51.6 76.8-57.8 79.5-64.1 82-69.7 84.4-74.6 86.5-79.5 89.1-83.6 91.6-86.9 96.1-93.2 101.2-96.5 107.2-96.5 112.9-96.5 117.2-94.7 120.3-90.8 123.4-87.1 125-82.4 125-77 125-73.6 124.6-68.8 123.6-62.1 122.7-55.7 122.3-51.2 122.3-49 120.3-23.8 119.5-0.8 119.5 19.5 119.5 57 122.9 90.8 129.3 120.5 135.7 150.2 144.7 176 156.4 197.9 168 219.5 182.8 238.5 201.2 254.3 219.3 270.1 239.1 283 260 293.2 281.1 303.1 305.7 311.1 334.2 316.8 362.7 322.7 391.2 326.6 420.1 328.9 449 331.1 481.6 332.2 518 332.2H643V189.5C643 179.9 646.5 171.5 653.5 164.5 660.5 157.4 668.9 153.9 678.7 153.9 688.3 153.9 696.7 157.4 703.9 164.5L989.6 450.2C996.7 457.2 1000.2 465.6 1000.2 475.4 1000 484.6 996.5 493 989.5 500.2ZM989.5 500.2"
 horiz-adv-x="1000" 
 />
 
<glyph 
 glyph-name="arrow-right" 
 unicode="&#xe006;"
 d="M317.2-150C299.4-150 281.4-143.8 267-131.3 234.8-103.5 231.3-54.9 259.2-22.7L581.1 350 259 722.7C231.3 754.9 234.8 803.3 267 831.3 299.2 859 347.7 855.5 375.6 823.2L741.2 400.2C766.2 371.3 766.2 328.5 741.2 299.6L375.4-123.4C360.2-141 338.7-150 317.2-150Z"
 horiz-adv-x="1000" 
 />
 
<glyph 
 glyph-name="email" 
 unicode="&#xe007;"
 d="M681.6 385.4L986.1 680.3C994.7 671.7 1000.2 660 1000.2 646.9V53.1C1000.2 40.8 995.3 29.7 987.5 21.3L681.6 385.4ZM15.6 681.6C24 689.1 34.8 693.8 46.9 693.8H953.1C965.2 693.8 976.2 689.1 984.4 681.6L500 303.1 15.6 681.6ZM12.7 21.3C4.9 29.7 0 40.8 0 53.1V646.9C0 660 5.3 671.7 14.1 680.3L318.6 385.4 12.7 21.3ZM500 209.4L627.1 332.6 985.4 19.3C977 11.3 965.6 6.4 953.1 6.4H46.9C34.4 6.4 23 11.3 14.6 19.3L372.9 332.6 500 209.4Z"
 horiz-adv-x="1000" 
 />
 
<glyph 
 glyph-name="arrow-down" 
 unicode="&#xe008;"
 d="M0 533C0 550.8 6.3 568.8 18.8 583.2 46.5 615.4 95.1 618.9 127.3 591L500 269.1 872.7 591.2C904.9 618.9 953.3 615.4 981.3 583.2 1009 551 1005.5 502.5 973.2 474.6L550.2 109C521.3 84 478.5 84 449.6 109L26.6 474.8C9 490 0 511.5 0 533Z"
 horiz-adv-x="1000" 
 />
 

</font>
</defs>
</svg>
